session1
…
clean_col_data = raw_data %>% 
  janitor::clean_names()

Selecting data

Selecting certain columns

This selects columns.

sub_data = clean_col_data %>% 
  dplyr::select(strain, sample)

sub_data

## # A tibble: 168 x 2
##    strain sample
##    <chr>  <chr> 
##  1 HW     HW1   
##  2 HW     HW2   
##  3 HW     HW3   
##  4 HW     HW4   
##  5 HW     HW5   
##  6 HW     HW6   
##  7 HW     WW45  
##  8 HW     WW46  
##  9 HW     WW47  
## 10 HW     WW48  
## # … with 158 more rows
…
## [1] "strain"     "sample"     "time_hours" "dose_µg_kg" "rin"       
## [6] "ng_µ_l"     "x260_280"

select_columns = colnames(clean_col_data)[1:4]
select_columns

## [1] "strain"     "sample"     "time_hours" "dose_µg_kg"

sub_data = clean_col_data %>% 
  dplyr::select(one_of(select_columns))

sub_data

## # A tibble: 168 x 4
##    strain sample time_hours dose_µg_kg
##    <chr>  <chr>  <chr>      <chr>     
##  1 HW     HW1    1.5        0         
##  2 HW     HW2    1.5        0         
##  3 HW     HW3    1.5        0         
##  4 HW     HW4    1.5        100       
##  5 HW     HW5    1.5        100       
##  6 HW     HW6    1.5        100       
##  7 HW     WW45   3          100       
##  8 HW     WW46   3          100       
##  9 HW     WW47   3          100       
## 10 HW     WW48   3          100       
## # … with 158 more rows
…
filter_data = mutate_data %>% 
  dplyr::filter(!is.na(time))

filter_data = mutate_data %>% 
  dplyr::filter(complete.cases(time))

filter_data

## # A tibble: 165 x 4
##    strain sample  time  dose
##    <chr>  <chr>  <dbl> <dbl>
##  1 HW     HW1      1.5     0
##  2 HW     HW2      1.5     0
##  3 HW     HW3      1.5     0
##  4 HW     HW4      1.5   100
##  5 HW     HW5      1.5   100
##  6 HW     HW6      1.5   100
##  7 HW     WW45     3     100
##  8 HW     WW46     3     100
##  9 HW     WW47     3     100
## 10 HW     WW48     3     100
## # … with 155 more rows
…
filter_data %>% 
  group_by(strain, dose, time) %>% 
  count()

## # A tibble: 36 x 4
## # Groups:   strain, dose, time [36]
##    strain   dose  time     n
##    <chr>   <dbl> <dbl> <int>
##  1 HW      0       1.5     3
##  2 HW      0      19       7
##  3 HW      0      96       5
##  4 HW      0     240       5
##  5 HW      0     384       4
##  6 HW      0.001  19       4
##  7 HW      0.01   19       4
##  8 HW      0.1    19       4
##  9 HW      1      19       4
## 10 HW     10      19       4
## # … with 26 more rows
…
