session2
…
clean_sample_data %>% 
  group_by(strain, dose, time) %>% 
  count()

## # A tibble: 36 x 4
## # Groups:   strain, dose, time [36]
##    strain dose  time      n
##    <chr>  <chr> <chr> <int>
##  1 HW     0     1.5       3
##  2 HW     0     19        7
##  3 HW     0     240       5
##  4 HW     0     384       4
##  5 HW     0     96        5
##  6 HW     0.001 19        4
##  7 HW     0.01  19        4
##  8 HW     0.1   19        4
##  9 HW     1     19        4
## 10 HW     10    19        4
## # … with 26 more rows
…
left_join sample data

ge_sample_data = data.frame(
  sample = colnames(raw_ge_data)[-1],
  ge_data_available = "yes"
)

joined_sample_data = left_join(clean_sample_data, ge_sample_data, by = "sample")

## Warning: Column `sample` joining character vector and factor, coercing into
## character vector

joined_sample_data

## # A tibble: 165 x 5
##    strain sample time  dose  ge_data_available
##    <chr>  <chr>  <chr> <chr> <fct>            
##  1 HW     HW1    1.5   0     yes              
##  2 HW     HW2    1.5   0     yes              
##  3 HW     HW3    1.5   0     yes              
##  4 HW     HW4    1.5   100   yes              
##  5 HW     HW5    1.5   100   yes              
##  6 HW     HW6    1.5   100   yes              
##  7 HW     WW45   3     100   yes              
##  8 HW     WW46   3     100   yes              
##  9 HW     WW47   3     100   yes              
## 10 HW     WW48   3     100   yes              
## # … with 155 more rows

tidyr::pivot_longer the gene expression data

ge_data_long = raw_ge_data %>% 
  tidyr::pivot_longer(
    cols = -GENE_SYMBOL,
    names_to = "sample", 
    values_to = "gene_expression")

ge_data_long

## # A tibble: 770 x 3
##    GENE_SYMBOL sample gene_expression
##    <chr>       <chr>            <dbl>
##  1 Ahrr        HW1              13.0 
##  2 Ahrr        HW2               1.42
##  3 Ahrr        HW3               1.29
##  4 Ahrr        HW4               9.96
##  5 Ahrr        HW5               7.55
##  6 Ahrr        HW6               5.45
##  7 Ahrr        WW41             29.7 
##  8 Ahrr        WW42             30.2 
##  9 Ahrr        WW45             18.1 
## 10 Ahrr        WW46             22.4 
## # … with 760 more rows
…
