session3
…
## Parsed with column specification:
## cols(
##   .default = col_double(),
##   strain = col_character(),
##   sample = col_character()
## )

## See spec(...) for full column specifications.

clean_data = session3_data %>% 
  dplyr::mutate_if(is.numeric, .funs = log)

clean_data

## # A tibble: 154 x 56
##    strain sample  Ahrr Aldh3a1  Bbs2 Ccbl1 Cxcr7 Col18a1 Cyb5a Cyp1a1
##    <chr>  <chr>  <dbl>   <dbl> <dbl> <dbl> <dbl>   <dbl> <dbl>  <dbl>
##  1 HW     HW1    2.57     1.65  3.52  5.47  3.16    7.43 10.1    2.90
##  2 HW     HW2    0.352    2.14  3.82  5.49  3.30    7.56 10.2    4.22
##  3 HW     HW3    0.254    2.05  3.47  5.17  2.74    6.82 10.1    3.47
##  4 HW     HW4    2.30     5.73  4.24  5.62  4.22    7.77 10.4    9.20
##  5 HW     HW5    2.02     4.18  3.97  5.76  3.53    7.43 10.2    8.84
##  6 HW     HW6    1.70     4.40  3.87  5.50  3.70    7.78 10.00   8.88
##  7 HW     WW45   2.90     7.98  4.13  6.34  3.62    7.19  9.90  10.7 
##  8 HW     WW46   3.11     7.01  4.30  6.26  3.73    7.05  9.85  10.3 
##  9 HW     WW47   3.36     7.73  3.97  6.48  4.31    7.49  9.83  10.7 
## 10 HW     WW48   2.04     7.96  3.74  6.26  3.85    6.90  9.67  10.3 
## # … with 144 more rows, and 46 more variables: Cyp1a2 <dbl>, Cyp1b1 <dbl>,
## #   Cyp2a1 <dbl>, Cyp2s1 <dbl>, Eef1a1 <dbl>, Eml4 <dbl>, Exoc3 <dbl>,
## #   Fdft1 <dbl>, Fmo1 <dbl>, Gapdh <dbl>, Gfer <dbl>, Ghr <dbl>,
## #   Glud1 <dbl>, Hagh <dbl>, Hprt1 <dbl>, Hsd17b12 <dbl>, Ivns1abp <dbl>,
## #   Lasp1 <dbl>, Uvrag <dbl>, Inmt <dbl>, Pbld <dbl>, Mug1 <dbl>,
## #   Neu1 <dbl>, Nfe2l2 <dbl>, Nqo1 <dbl>, Nrbp2 <dbl>, Nudt4 <dbl>,
## #   Pde2a <dbl>, Perp <dbl>, Pgk1 <dbl>, Pmm1 <dbl>, Ppia <dbl>,
## #   Psmb4 <dbl>, Pomp <dbl>, Derl1 <dbl>, Ern1 <dbl>, Rpl13a <dbl>,
## #   Scn4b <dbl>, Sdc1 <dbl>, Sdha <dbl>, Slco1a1 <dbl>, Srxn1 <dbl>,
…
So now, our very difficult task of performing 54 t-tests is simplified to spliting clean_data into 54 datasets, one for each gene.

While there are many ways this can be done in R, we will use a tidyverse framework that has the advantage of readable codes and generalisability.

First, let’s pivot our data into a long format.

gene_long = clean_data %>%
  tidyr::pivot_longer(
    cols = -c("strain", "sample"),
    names_to = "gene_symbol",
    values_to = "gene_expression")

gene_long

## # A tibble: 8,316 x 4
##    strain sample gene_symbol gene_expression
##    <chr>  <chr>  <chr>                 <dbl>
##  1 HW     HW1    Ahrr                   2.57
##  2 HW     HW1    Aldh3a1                1.65
##  3 HW     HW1    Bbs2                   3.52
##  4 HW     HW1    Ccbl1                  5.47
##  5 HW     HW1    Cxcr7                  3.16
##  6 HW     HW1    Col18a1                7.43
##  7 HW     HW1    Cyb5a                 10.1 
##  8 HW     HW1    Cyp1a1                 2.90
##  9 HW     HW1    Cyp1a2                10.6 
## 10 HW     HW1    Cyp1b1                 1.87
## # … with 8,306 more rows

Then we will use the group_by function and then apply the nest function from the tidyr package.

gene_nest = gene_long %>% 
  group_by(gene_symbol) %>% 
  tidyr::nest(.key = "small_data") %>% 
  dplyr::ungroup()

## Warning: `.key` is deprecated

gene_nest

## # A tibble: 54 x 2
##    gene_symbol     small_data
##    <chr>       <list<df[,3]>>
##  1 Ahrr             [154 × 3]
##  2 Aldh3a1          [154 × 3]
##  3 Bbs2             [154 × 3]
##  4 Ccbl1            [154 × 3]
##  5 Cxcr7            [154 × 3]
##  6 Col18a1          [154 × 3]
##  7 Cyb5a            [154 × 3]
##  8 Cyp1a1           [154 × 3]
##  9 Cyp1a2           [154 × 3]
## 10 Cyp1b1           [154 × 3]
## # … with 44 more rows

gene_nest$small_data[1:2]

## <list_of<
##   tbl_df<
##     strain         : character
##     sample         : character
##     gene_expression: double
##   >
## >[2]>
## [[1]]
## # A tibble: 154 x 3
##    strain sample gene_expression
##    <chr>  <chr>            <dbl>
##  1 HW     HW1              2.57 
##  2 HW     HW2              0.352
##  3 HW     HW3              0.254
##  4 HW     HW4              2.30 
##  5 HW     HW5              2.02 
##  6 HW     HW6              1.70 
##  7 HW     WW45             2.90 
##  8 HW     WW46             3.11 
##  9 HW     WW47             3.36 
## 10 HW     WW48             2.04 
## # … with 144 more rows
## 
## [[2]]
## # A tibble: 154 x 3
##    strain sample gene_expression
##    <chr>  <chr>            <dbl>
##  1 HW     HW1               1.65
##  2 HW     HW2               2.14
##  3 HW     HW3               2.05
##  4 HW     HW4               5.73
##  5 HW     HW5               4.18
##  6 HW     HW6               4.40
##  7 HW     WW45              7.98
##  8 HW     WW46              7.01
##  9 HW     WW47              7.73
## 10 HW     WW48              7.96
## # … with 144 more rows
…
In the gene_nest data, we want to mutate (create) a new column

This new column will be called tidy_result and it is defined as mapping the tidy_test function to every element if the small_data column.

gene_test = gene_nest %>% 
  dplyr::mutate(
    tidy_result = purrr::map(
      .x = small_data,
      .f = tidy_test)
  )

gene_test

## # A tibble: 54 x 3
##    gene_symbol     small_data tidy_result      
##    <chr>       <list<df[,3]>> <list>           
##  1 Ahrr             [154 × 3] <tibble [1 × 10]>
##  2 Aldh3a1          [154 × 3] <tibble [1 × 10]>
##  3 Bbs2             [154 × 3] <tibble [1 × 10]>
##  4 Ccbl1            [154 × 3] <tibble [1 × 10]>
##  5 Cxcr7            [154 × 3] <tibble [1 × 10]>
##  6 Col18a1          [154 × 3] <tibble [1 × 10]>
##  7 Cyb5a            [154 × 3] <tibble [1 × 10]>
##  8 Cyp1a1           [154 × 3] <tibble [1 × 10]>
##  9 Cyp1a2           [154 × 3] <tibble [1 × 10]>
## 10 Cyp1b1           [154 × 3] <tibble [1 × 10]>
## # … with 44 more rows
…
gene_test_long = gene_test %>% 
  tidyr::unnest(tidy_result)

gene_test_long

## # A tibble: 54 x 12
##    gene_symbol small_data estimate estimate1 estimate2 statistic p.value
##    <chr>       <list<df[>    <dbl>     <dbl>     <dbl>     <dbl>   <dbl>
##  1 Ahrr         [154 × 3]  -0.152       3.00      3.15    -0.757 4.50e-1
##  2 Aldh3a1      [154 × 3]  -0.494       6.36      6.86    -0.959 3.39e-1
##  3 Bbs2         [154 × 3]  -0.264       4.18      4.44    -3.25  1.44e-3
##  4 Ccbl1        [154 × 3]  -0.0702      6.25      6.32    -0.640 5.23e-1
##  5 Cxcr7        [154 × 3]  -1.19        3.57      4.76    -6.74  1.34e-9
##  6 Col18a1      [154 × 3]  -0.0752      7.27      7.35    -1.03  3.02e-1
##  7 Cyb5a        [154 × 3]   0.0783     10.2      10.1      1.48  1.40e-1
##  8 Cyp1a1       [154 × 3]  -0.485       8.89      9.38    -1.03  3.07e-1
##  9 Cyp1a2       [154 × 3]  -0.216      12.0      12.2     -1.17  2.42e-1
## 10 Cyp1b1       [154 × 3]  -0.502       4.84      5.35    -1.11  2.68e-1
## # … with 44 more rows, and 5 more variables: parameter <dbl>,
## #   conf.low <dbl>, conf.high <dbl>, method <chr>, alternative <chr>
…
boxplot_data = gene_test_long %>% 
  dplyr::filter(rank(p.value) <= 6) %>% 
  tidyr::unnest(small_data)

boxplot_data

## # A tibble: 924 x 14
##    gene_symbol strain sample gene_expression estimate estimate1 estimate2
##    <chr>       <chr>  <chr>            <dbl>    <dbl>     <dbl>     <dbl>
##  1 Cxcr7       HW     HW1               3.16    -1.19      3.57      4.76
##  2 Cxcr7       HW     HW2               3.30    -1.19      3.57      4.76
##  3 Cxcr7       HW     HW3               2.74    -1.19      3.57      4.76
##  4 Cxcr7       HW     HW4               4.22    -1.19      3.57      4.76
##  5 Cxcr7       HW     HW5               3.53    -1.19      3.57      4.76
##  6 Cxcr7       HW     HW6               3.70    -1.19      3.57      4.76
##  7 Cxcr7       HW     WW45              3.62    -1.19      3.57      4.76
##  8 Cxcr7       HW     WW46              3.73    -1.19      3.57      4.76
##  9 Cxcr7       HW     WW47              4.31    -1.19      3.57      4.76
## 10 Cxcr7       HW     WW48              3.85    -1.19      3.57      4.76
## # … with 914 more rows, and 7 more variables: statistic <dbl>,
## #   p.value <dbl>, parameter <dbl>, conf.low <dbl>, conf.high <dbl>,
## #   method <chr>, alternative <chr>
…
